<svg id="Capa_1" data-name="Capa 1" xmlns="http://www.w3.org/2000/svg" viewBox="0 0 524.7 504.02">
	<defs>
		<style>.cls-1{fill:#56a0fb;}.cls-2{fill:#56a0fb;opacity: 0.7;}</style>
	</defs>
	<circle class="cls-1" cx="45.89" cy="45.89" r="45.89"/>
	<circle class="cls-2" cx="456.05" cy="91.79" r="45.89"/>

	<path class="cls-2" d="M271.66,253.8l0,0L315.89,270a28.74,28.74,0,0,0,5.52,1.37l.33.47a28.75,28.75,0,0,0-.1,7.76l13.44,98.26L328.36,477a29,29,0,0,0,27,30.92c.67.05,1.34.07,2,.07a29,29,0,0,0,28.94-27.07l6.93-102.05a29.19,29.19,0,0,0-.21-5.91l-10.94-79.83,26.27-34.22,30-40.26,32.42,14.72,6.81,57.27A25.41,25.41,0,0,0,502.82,313a23.49,23.49,0,0,0,3-.18,25.4,25.4,0,0,0,22.23-28.22l-8.51-71.48A25.34,25.34,0,0,0,504.82,193l-58.33-26.48L396.8,141.34a25.16,25.16,0,0,0-5.85-3.65l-40.62-17.44a26,26,0,0,0-4.82-1.53l-75.06-15.67a25.41,25.41,0,1,0-10.4,49.74L332.63,168l19.95,8.56L326,211.84l-142.08-52a29.05,29.05,0,0,0-37.24,17.3c-4.49,12.27,9.8,33,9.8,33" transform="translate(-3.53 -15.26)"/>

	<path class="cls-1" d="M219.93,210.2c-2.89-3.71-40.44,5.17-67.33,8.61l-17-63.43,9.35-2a25.39,25.39,0,0,0,18.57-16.24L191.61,59a25.4,25.4,0,0,0-47.82-17.17L121.09,105l-10.39,3.79-3.77.81a25.33,25.33,0,0,0-8.78,3.77L60.84,127a23,23,0,0,0-13.92,28.23l50.88,162,.2.6,5.74,55.29L52.63,477.48A29,29,0,0,0,104.77,503L159.5,391.3a29,29,0,0,0,2.84-15.49l-8.67-91.68c0-.14-.07-.26-.08-.4l14.13-8.49,0-.12,43.44-15.94,43.29,37.89a29,29,0,1,0,38.25-43.68Z" transform="translate(-3.53 -15.26)"/>
</svg>